Panel Veri Analizi
…
Kayıp Veri Analizi

NROW(na.omit(weapons))

## [1] 1150

Verimizde eksik değer bulunmamaktadır.

3.Dengeli Panel - Dengesiz Panel

Panel verilerle çalışıldığında, her bir birim tüm zamanlar boyunca gözlenmişse “dengeli panel”; bazı birimler için bazı zamanlar kayıpsa “dengesiz panel” olarak adlandırılmaktadır.

weapons %>% count(stateid)

## # A tibble: 50 x 2
##    stateid     n
##    <chr>   <int>
##  1 AK         23
##  2 AL         23
##  3 AR         23
##  4 AZ         23
##  5 CA         23
##  6 CO         23
##  7 CT         23
##  8 DE         23
##  9 FL         23
## 10 GA         23
## # ... with 40 more rows
…
